Verzekeringskosten
…
Hierboven is een demonstratie van onze regressie op een lijn. Er is een grote cluster van waarden die ons model gewoon niet weergeeft, en we zouden meer kunnen leren over deze punten, maar in plaats daarvan gaan we verder met het toepassen van ons model op onze testgegevens, die we veel eerder in dit project hebben gedefinieerd.

# A tibble: 334 x 2
    .pred charges
    <dbl>   <dbl>
 1  4339.   3757.
 2 27038.  27809.
 3  2231.   1837.
 4  6500.   6204.
 5  2794.   4688.
 6  6057.   6314.
 7 14335.  12630.
 8  1663.   2211.
 9  5655.   3580.
10 39401.  37743.
# … with 324 more rows
…
# A tibble: 2 x 6
  .metric .estimator     mean     n  std_err .config             
  <chr>   <chr>         <dbl> <int>    <dbl> <chr>               
1 rmse    standard   4866.       10 251.     Preprocessor1_Model1
2 rsq     standard      0.832    10   0.0162 Preprocessor1_Model1

# A tibble: 2 x 6
  .metric .estimator     mean     n  std_err .config             
  <chr>   <chr>         <dbl> <int>    <dbl> <chr>               
1 rmse    standard   4916.       10 274.     Preprocessor1_Model1
2 rsq     standard      0.827    10   0.0194 Preprocessor1_Model1

Fascinerend! Het blijkt dat het goede, ouderwetse lineaire model k-Nearest Neighbors verslaat zowel in termen van RMSE als van R^2 over 10 kruisvalidatie-voudigingen.

# A tibble: 334 x 2
    .pred charges
    <dbl>   <dbl>
 1  6335.   3757.
 2 31938.  27809.
 3  3171.   1837.
 4  7878.   6204.
 5  3081.   4688.
 6  7815.   6314.
 7 14070.  12630.
 8  2656.   2211.
 9  3498.   3580.
10 36293.  37743.
# … with 324 more rows
…
