Classificeren van Palmer penguins
…
  Julia Silge, bewerking Harrie Jonkman true 

07-18-2021

Palmer penguins classificatie

Hier kun je overigen haar opnmame vinden. Julia Silge on youtube

De laatste tijd heeft Julia Silge een aantal videoopnamen gemaakt die laten zien hoe het tidymodels raamwerk is te gebruiken.Het zijn opnamen over de eerste stappen in het modelleren tot hoe complexe modellen zijn te evalueren. Deze videoopname is goed voor mensen die net beginnen met tidymodels. Ze maakt daarbij gebruik van een #TidyTuesday dataset over pinguïns. Hier gaat het om classificeren.

Hier kun je haar opnmame vinden. Julia Silge on youtube

Eerst maar eens enkele pakketten laden en het databestand openen.

# A tibble: 344 x 8
   species island    bill_length_mm bill_depth_mm flipper_length_mm
   <fct>   <fct>              <dbl>         <dbl>             <int>
 1 Adelie  Torgersen           39.1          18.7               181
 2 Adelie  Torgersen           39.5          17.4               186
 3 Adelie  Torgersen           40.3          18                 195
 4 Adelie  Torgersen           NA            NA                  NA
 5 Adelie  Torgersen           36.7          19.3               193
 6 Adelie  Torgersen           39.3          20.6               190
 7 Adelie  Torgersen           38.9          17.8               181
 8 Adelie  Torgersen           39.2          19.6               195
 9 Adelie  Torgersen           34.1          18.1               193
10 Adelie  Torgersen           42            20.2               190
# … with 334 more rows, and 3 more variables: body_mass_g <int>,
#   sex <fct>, year <int>
…
Het ziet er naar uit dat de vrouwelijke pinguïnflippers kleiner zijn met kleinere snavels, maar laten we ons klaarmaken voor het modelleren om meer te weten te komen! De informatie over het eiland of het jaar zullen we niet gebruiken in ons model. Die halen we eruit.

Een modelopbouwen

We zullen ook het tidymodels metapakket laden en vervolgens onze gegevens splitsen in een trainings- en testingssets.

Omdat het een relatieve kleine dataset betreft (zeker de testset), maken we vervolgens hier gebruik van bootstrap-resamples van de trainingsgegevens, om onze modellen te evalueren.

# Bootstrap sampling 
# A tibble: 25 x 2
   splits            id         
   <list>            <chr>      
 1 <rsplit [250/93]> Bootstrap01
 2 <rsplit [250/92]> Bootstrap02
 3 <rsplit [250/90]> Bootstrap03
 4 <rsplit [250/92]> Bootstrap04
 5 <rsplit [250/86]> Bootstrap05
 6 <rsplit [250/88]> Bootstrap06
 7 <rsplit [250/96]> Bootstrap07
 8 <rsplit [250/89]> Bootstrap08
 9 <rsplit [250/96]> Bootstrap09
10 <rsplit [250/90]> Bootstrap10
# … with 15 more rows
…
Laten we nu beginnen met het samenstellen van een tidymodels workflow(), een object dat helpt om modelleer-pijplijnen te beheren met stukjes die in elkaar passen als Lego-blokjes. Merk op dat er nog geen model is:

══ Workflow ══════════════════════════════════════════════════════════
Preprocessor: Formula
Model: None

── Preprocessor ──────────────────────────────────────────────────────
sex ~ .

Nu kunnen we een model toevoegen, en de fit voor elk van de resamples. Eerst kunnen we het logistische regressiemodel passen.

# Resampling results
# Bootstrap sampling 
# A tibble: 25 x 5
   splits         id        .metrics      .notes       .predictions   
   <list>         <chr>     <list>        <list>       <list>         
 1 <rsplit [250/… Bootstra… <tibble [2 ×… <tibble [0 … <tibble [93 × …
 2 <rsplit [250/… Bootstra… <tibble [2 ×… <tibble [0 … <tibble [92 × …
 3 <rsplit [250/… Bootstra… <tibble [2 ×… <tibble [0 … <tibble [90 × …
 4 <rsplit [250/… Bootstra… <tibble [2 ×… <tibble [0 … <tibble [92 × …
 5 <rsplit [250/… Bootstra… <tibble [2 ×… <tibble [0 … <tibble [86 × …
 6 <rsplit [250/… Bootstra… <tibble [2 ×… <tibble [0 … <tibble [88 × …
 7 <rsplit [250/… Bootstra… <tibble [2 ×… <tibble [0 … <tibble [96 × …
 8 <rsplit [250/… Bootstra… <tibble [2 ×… <tibble [0 … <tibble [89 × …
 9 <rsplit [250/… Bootstra… <tibble [2 ×… <tibble [0 … <tibble [96 × …
10 <rsplit [250/… Bootstra… <tibble [2 ×… <tibble [0 … <tibble [90 × …
# … with 15 more rows

Ten tweede kunnen we het random forest model toepassen.

# Resampling results
# Bootstrap sampling 
# A tibble: 25 x 5
   splits         id        .metrics      .notes       .predictions   
   <list>         <chr>     <list>        <list>       <list>         
 1 <rsplit [250/… Bootstra… <tibble [2 ×… <tibble [0 … <tibble [93 × …
 2 <rsplit [250/… Bootstra… <tibble [2 ×… <tibble [0 … <tibble [92 × …
 3 <rsplit [250/… Bootstra… <tibble [2 ×… <tibble [0 … <tibble [90 × …
 4 <rsplit [250/… Bootstra… <tibble [2 ×… <tibble [0 … <tibble [92 × …
 5 <rsplit [250/… Bootstra… <tibble [2 ×… <tibble [0 … <tibble [86 × …
 6 <rsplit [250/… Bootstra… <tibble [2 ×… <tibble [0 … <tibble [88 × …
 7 <rsplit [250/… Bootstra… <tibble [2 ×… <tibble [0 … <tibble [96 × …
 8 <rsplit [250/… Bootstra… <tibble [2 ×… <tibble [0 … <tibble [89 × …
 9 <rsplit [250/… Bootstra… <tibble [2 ×… <tibble [0 … <tibble [96 × …
10 <rsplit [250/… Bootstra… <tibble [2 ×… <tibble [0 … <tibble [90 × …
# … with 15 more rows
…
