Harrie's Hoekje: Bewerking geografische data in R: Nieuwe ontwikkelingen
…
Merk op dat naast de attribuutgegevens die worden geaggregeerd, ook de geometrien zijn geaggregeerd. Alle geometrien in elke groep zijn samengevoegd en de grenzen tussen aangrenzende geometrien zijn opgelost. Intern wordt de functie st_union() gebruikt om dit te bereiken.

Net als bij een normaal gegevensframe kunnen gegroepeerde filtering en mutatie worden uitgevoerd op sf objecten. Bijvoorbeeld, om de proportionele verdeling van geboorten tussen provincies binnen elke groep te berekenen, gebruikt u een gegroepeerde mutate():

# A tibble: 100 x 4
   group  AREA area_prop                                      geometry
   <chr> <dbl>     <dbl>                           <MULTIPOLYGON []>
 1 A     0.114      12.6 (((-81.47276 36.23436, -81.54084 36.27251, -~
 2 C     0.061      12.6 (((-81.23989 36.36536, -81.24069 36.37942, -~
 3 C     0.143      12.6 (((-80.45634 36.24256, -80.47639 36.25473, -~
 4 B     0.07       12.6 (((-76.00897 36.3196, -76.01735 36.33773, -7~
 5 B     0.153      12.6 (((-77.21767 36.24098, -77.23461 36.2146, -7~
 6 A     0.097      12.6 (((-76.74506 36.23392, -76.98069 36.23024, -~
 7 A     0.062      12.6 (((-76.00897 36.3196, -75.95718 36.19377, -7~
 8 A     0.091      12.6 (((-76.56251 36.34057, -76.60424 36.31498, -~
 9 C     0.118      12.6 (((-78.30876 36.26004, -78.28293 36.29188, -~
10 B     0.124      12.6 (((-80.02567 36.25023, -80.45301 36.25709, -~
# ... with 90 more rows

Om alleen landen te behouden binnen groepen die een groter gebied hebben dan een bepaalde drempel, kan een gegroepeerde filter() worden gebruikt:

# A tibble: 38 x 3
   group  AREA                                                geometry
   <chr> <dbl>                                     <MULTIPOLYGON []>
 1 B     0.07  (((-76.00897 36.3196, -76.01735 36.33773, -76.03288 36~
 2 B     0.153 (((-77.21767 36.24098, -77.23461 36.2146, -77.29861 36~
 3 B     0.124 (((-80.02567 36.25023, -80.45301 36.25709, -80.43531 3~
 4 B     0.153 (((-79.53051 36.24614, -79.53058 36.23616, -80.02567 3~
 5 B     0.072 (((-78.49252 36.17359, -78.51472 36.17522, -78.51709 3~
 6 B     0.081 (((-81.80622 36.10456, -81.81715 36.10939, -81.82231 3~
 7 B     0.064 (((-81.94135 35.95498, -81.9614 35.93922, -81.94495 35~
 8 B     0.128 (((-78.25455 35.81553, -78.26685 35.84838, -78.30841 3~
 9 B     0.17  (((-79.53782 35.89097, -80.0426 35.91681, -80.0381 36.~
10 B     0.111 (((-79.24619 35.86815, -79.23799 35.83725, -79.54099 3~
# ... with 28 more rows
…
