Harrie's Hoekje: ggplot en trucks
…
Data

show

penguins <- 
  readr::read_csv('https://raw.githubusercontent.com/rfordatascience/tidytuesday/master/data/2020/2020-07-28/penguins.csv') %>% 
  ## om de namen van de soorten goed te spellen
  mutate(species = if_else(species == "Adelie", "Adélie", species)) %>% 
  ## missende observaties weghalen
  filter(!is.na(bill_length_mm), !is.na(bill_depth_mm))

## inspecteren van de data
penguins

# A tibble: 342 x 8
   species island    bill_length_mm bill_depth_mm flipper_length_mm
   <chr>   <chr>              <dbl>         <dbl>             <dbl>
 1 Adélie  Torgersen           39.1          18.7               181
 2 Adélie  Torgersen           39.5          17.4               186
 3 Adélie  Torgersen           40.3          18                 195
 4 Adélie  Torgersen           36.7          19.3               193
 5 Adélie  Torgersen           39.3          20.6               190
 6 Adélie  Torgersen           38.9          17.8               181
 7 Adélie  Torgersen           39.2          19.6               195
 8 Adélie  Torgersen           34.1          18.1               193
 9 Adélie  Torgersen           42            20.2               190
10 Adélie  Torgersen           37.8          17.1               186
# ... with 332 more rows, and 3 more variables: body_mass_g <dbl>,
#   sex <chr>, year <dbl>
…
