Tidymodels opnieuw
…
Inputs:

      role #variables
   outcome          1
 predictor          8

Operations:

Centering and scaling for all_numeric()
K-nearest neighbor imputation for all_predictors()

Als je de voorbewerkte dataset zelf wilt extraheren, kunt je eerst prep() het recept voor een specifieke dataset en juice() het voorbewerkte recept om de voorbewerkte gegevens te extraheren. Het blijkt dat het extraheren van de voorbewerkte data eigenlijk niet nodig is voor de pipeline, omdat dit onder de motorkap gebeurt als het model geschikt is. Soms is het toch nuttig.

# A tibble: 576 x 9
   pregnant glucose pressure triceps insulin   mass pedigree     age
      <dbl>   <dbl>    <dbl>   <dbl>   <dbl>  <dbl>    <dbl>   <dbl>
 1   0.673   0.837   -0.0581  0.616   0.328   0.187    0.531  1.37  
 2  -0.824  -1.21    -0.537   0.0354 -0.770  -0.831   -0.359 -0.205 
 3   1.27    1.98    -0.697   0.229   1.33   -1.31     0.676 -0.122 
 4  -1.12    0.478   -2.61    0.616   0.0669  1.57     5.89  -0.0396
 5   0.374  -0.205    0.102  -0.700  -0.404  -0.977   -0.843 -0.287 
 6   1.87   -0.238    0.229   0.229   0.558   0.435   -1.06  -0.370 
 7  -0.525   2.43    -0.218   1.58    3.15   -0.264   -0.982  1.61  
 8   1.27    0.0877   1.86   -0.178   0.863   0.318   -0.743  1.70  
 9   0.0743 -0.401    1.54    0.674   0.139   0.769   -0.875 -0.287 
10   1.87    0.544    0.581  -0.448   0.666  -0.758    3.16   1.94  
# … with 566 more rows, and 1 more variable: diabetes <fct>
…
Dit is echt een aardige eigenschap van tidymodels (en ook waarom je zo goed kunt werken met tidyverse) omdat je al je nette handelingen op het modelobject kunt uitvoeren.

Aangezien we het trainings/testobject al hebben geleverd op het moment dat we in de workflow werken, worden de maten geëvalueerd op de testset. Wanneer we nu de collect_metrics() functie gebruiken (herinner ons dat we deze hebben gebruikt bij het afstemmen van onze parameters), haalt deze de prestaties van het uiteindelijke model (aangezien rf_fit nu bestaat uit een enkel definitief model) toegepast op de test set.

# A tibble: 2 x 4
  .metric  .estimator .estimate .config             
  <chr>    <chr>          <dbl> <chr>               
1 accuracy binary         0.745 Preprocessor1_Model1
2 roc_auc  binary         0.831 Preprocessor1_Model1

Overall is de performance heel goed, met een accuracy van 0.74 en een AUC van 0.82. Maar deze waarden zijn vaak lager dan in de trainingsset.

Je kunt de test set voorspellingen zelf gebruiken met de collect_predictions() functie. Let op dat er 192 rijen in het voorspellingsobject zitten dat overeenkomt met de test set observaties (juist om jou te laten zien dat deze gebaseerd zijn op de testset meer dan op de trainingsset).

# A tibble: 192 x 7
   id        .pred_neg .pred_pos  .row .pred_class diabetes .config   
   <chr>         <dbl>     <dbl> <int> <fct>       <fct>    <chr>     
 1 train/te…    1.00     0.00045     4 neg         neg      Preproces…
 2 train/te…    0.967    0.0330      7 neg         pos      Preproces…
 3 train/te…    0.0393   0.961      12 pos         pos      Preproces…
 4 train/te…    0.708    0.292      19 neg         neg      Preproces…
 5 train/te…    0.636    0.364      21 neg         neg      Preproces…
 6 train/te…    0.541    0.459      25 neg         pos      Preproces…
 7 train/te…    0.482    0.518      27 pos         pos      Preproces…
 8 train/te…    0.692    0.308      29 neg         neg      Preproces…
 9 train/te…    0.951    0.0493     34 neg         neg      Preproces…
10 train/te…    0.369    0.631      35 pos         neg      Preproces…
# … with 182 more rows
…
De voorspellingen kun je ook als volgt laten zien:

[[1]]
# A tibble: 192 x 6
   .pred_neg .pred_pos  .row .pred_class diabetes .config             
       <dbl>     <dbl> <int> <fct>       <fct>    <chr>               
 1    1.00     0.00045     4 neg         neg      Preprocessor1_Model1
 2    0.967    0.0330      7 neg         pos      Preprocessor1_Model1
 3    0.0393   0.961      12 pos         pos      Preprocessor1_Model1
 4    0.708    0.292      19 neg         neg      Preprocessor1_Model1
 5    0.636    0.364      21 neg         neg      Preprocessor1_Model1
 6    0.541    0.459      25 neg         pos      Preprocessor1_Model1
 7    0.482    0.518      27 pos         pos      Preprocessor1_Model1
 8    0.692    0.308      29 neg         neg      Preprocessor1_Model1
 9    0.951    0.0493     34 neg         neg      Preprocessor1_Model1
10    0.369    0.631      35 pos         neg      Preprocessor1_Model1
# … with 182 more rows
…
